[gd_scene load_steps=4 format=2]

[ext_resource path="res://assets/characters/enemy/sound/foot_step.ogg" type="AudioStream" id=1]
[ext_resource path="res://assets/characters/enemy/model/enemy.glb" type="PackedScene" id=2]

[sub_resource type="AudioStreamRandomPitch" id=1]
audio_stream = ExtResource( 1 )

[node name="Enemy" instance=ExtResource( 2 )]

[node name="Camera" parent="." index="0"]
transform = Transform( 0.988378, -3.39746e-06, -0.152014, -0.150313, -0.149194, -0.977316, -0.0226763, 0.988808, -0.147461, -0.035, 1.215, 1.261 )

[node name="Camera" type="Camera" parent="Camera" index="0"]
transform = Transform( 1, 0, 0, 0, -1.62921e-07, 1, 0, -1, -1.62921e-07, 0, 0, 0 )
fov = 30.0

[node name="Footsteps" type="AudioStreamPlayer3D" parent="." index="5"]
stream = SubResource( 1 )
attenuation_model = 1
unit_db = 11.0
unit_size = 7.0
max_distance = 50.0
out_of_range_mode = 1
bus = "Footsteps"
