[gd_resource type="Resource" load_steps=3 format=2]

[ext_resource path="res://assets/collectibles/books/book_resource.gd" type="Script" id=1]
[ext_resource path="res://assets/collectibles/books/art_book/art_book_image.png" type="Texture" id=2]

[resource]
script = ExtResource( 1 )
image = ExtResource( 2 )
description = "It's really an art."
