[gd_resource type="Environment" load_steps=2 format=2]

[sub_resource type="PanoramaSky" id=1]

[resource]
background_mode = 1
background_sky = SubResource( 1 )
background_color = Color( 0.121569, 0.121569, 0.168627, 1 )
ambient_light_color = Color( 0.188235, 0.188235, 0.188235, 1 )
ambient_light_energy = 1.03
ambient_light_sky_contribution = 0.85
fog_enabled = true
fog_color = Color( 0.121569, 0.121569, 0.168627, 0.992157 )
fog_sun_color = Color( 0, 0, 0, 1 )
fog_depth_begin = 1.0
fog_depth_end = 20.0
fog_depth_curve = 1.37
glow_levels/3 = false
glow_levels/5 = false
glow_intensity = 7.85
glow_strength = 1.7
glow_hdr_threshold = 0.74
adjustment_enabled = true
