[gd_scene load_steps=4 format=2]

[ext_resource path="res://assets/menu/main_menu/interface.tscn" type="PackedScene" id=1]
[ext_resource path="res://assets/menu/main_menu/videos/background.ogv" type="VideoStream" id=3]
[ext_resource path="res://assets/menu/main_menu/menu_video.gd" type="Script" id=4]

[node name="Spatial" type="Control"]
anchor_right = 1.0
anchor_bottom = 1.0
__meta__ = {
"_edit_use_anchors_": false
}

[node name="VideoPlayer" type="VideoPlayer" parent="."]
anchor_right = 1.0
anchor_bottom = 1.0
stream = ExtResource( 3 )
autoplay = true
script = ExtResource( 4 )
__meta__ = {
"_edit_use_anchors_": false
}

[node name="Interface" parent="VideoPlayer" instance=ExtResource( 1 )]

[editable path="VideoPlayer/Interface"]
