[gd_scene load_steps=6 format=2]

[ext_resource path="res://assets/devices/terminal/console/terminalHD.png" type="Texture" id=1]
[ext_resource path="res://assets/devices/terminal/console/console.gd" type="Script" id=2]
[ext_resource path="res://assets/devices/terminal/console/terminal_hud.gd" type="Script" id=3]

[sub_resource type="Shader" id=1]
code = "shader_type canvas_item;

uniform float screen_width = 1024;
uniform float screen_height = 600;

// Curvature
uniform float BarrelPower =1.1;
// Color bleeding
uniform float color_bleeding = 1.2;
uniform float bleeding_range_x = 3;
uniform float bleeding_range_y = 3;
// Scanline
uniform float lines_distance = 4.0;
uniform float scan_size = 2.0;
uniform float scanline_alpha = 0.9;
uniform float lines_velocity = 30.0;

vec2 distort(vec2 p) 
{
	float angle = p.y / p.x;
	float theta = atan(p.y,p.x);
	float radius = pow(length(p), BarrelPower);
	
	p.x = radius * cos(theta);
	p.y = radius * sin(theta);
	
	return 0.5 * (p + vec2(1.0,1.0));
}

vec2 CRTCurveUV(vec2 uv) {
	uv = uv * 2.0 - 1.0;
	vec2 offset = abs(uv.yx) / vec2(3.0, 2.0);
	uv = uv + uv * offset * offset;
	uv = uv * 0.5 + 0.5;
	return uv;
}

void get_color_bleeding(inout vec4 current_color,inout vec4 color_left){
	current_color = current_color*vec4(color_bleeding,0.5,1.0-color_bleeding,1);
	color_left = color_left*vec4(1.0-color_bleeding,0.5,color_bleeding,1);
}

void get_color_scanline(vec2 uv,inout vec4 c,float time){
	float line_row = floor((uv.y * screen_height/scan_size) + mod(time*lines_velocity, lines_distance));
	float n = 1.0 - ceil((mod(line_row,lines_distance)/lines_distance));
	c = c - n*c*(1.0 - scanline_alpha);
	c.a = 1.0;
}

void fragment()
{
	vec2 xy = SCREEN_UV * 2.0;
	xy.x -= 1.0;
	xy.y -= 1.0;
	
	float d = length(xy);
	if(d < 1.5){
		xy = distort(xy);
	}
	else{
		xy = SCREEN_UV;
	}
	

	
	float pixel_size_x = 1.0/screen_width*bleeding_range_x;
	float pixel_size_y = 1.0/screen_height*bleeding_range_y;
	vec4 color_left = texture(SCREEN_TEXTURE,xy - vec2(pixel_size_x, pixel_size_y));
	vec4 current_color = texture(SCREEN_TEXTURE,xy);
	get_color_bleeding(current_color,color_left);
	vec4 c = current_color+color_left;
	get_color_scanline(xy,c,TIME);
	
	vec2 crtUV = CRTCurveUV(UV);
	if (crtUV.x < 0.0 || crtUV.x > 1.0 || crtUV.y < 0.0 || crtUV.y > 1.0) {
		c = vec4(0.0, 0.0, 0.0, 0.0);
	}
	COLOR = c;

}"

[sub_resource type="ShaderMaterial" id=2]
shader = SubResource( 1 )
shader_param/screen_width = 823.0
shader_param/screen_height = 561.0
shader_param/BarrelPower = 1.05
shader_param/color_bleeding = 1.0
shader_param/bleeding_range_x = 0.6
shader_param/bleeding_range_y = 1.0
shader_param/lines_distance = 2.0
shader_param/scan_size = 5.0
shader_param/scanline_alpha = 0.85
shader_param/lines_velocity = 2.0

[node name="ConsoleCanvas" type="CanvasLayer"]
script = ExtResource( 3 )

[node name="Console" type="Control" parent="."]
anchor_right = 1.0
anchor_bottom = 1.0
__meta__ = {
"_edit_use_anchors_": false
}

[node name="ConsoleTexture" type="TextureRect" parent="Console"]
margin_right = 1300.0
margin_bottom = 1080.0
size_flags_horizontal = 0
size_flags_vertical = 0
texture = ExtResource( 1 )
stretch_mode = 1
__meta__ = {
"_edit_use_anchors_": false
}

[node name="ConsoleProgramManager" type="Control" parent="Console"]
margin_left = 321.0
margin_top = 303.0
margin_right = 975.0
margin_bottom = 732.0
script = ExtResource( 2 )
__meta__ = {
"_edit_use_anchors_": false
}

[node name="ScreenShader" type="ColorRect" parent="Console"]
material = SubResource( 2 )
margin_left = 276.0
margin_top = 256.0
margin_right = 1021.0
margin_bottom = 783.0
color = Color( 1, 1, 1, 0 )
__meta__ = {
"_edit_use_anchors_": false
}
